[
    {
        "name": "netbeans",
        "author": "Dam Team",
        "description": "Netbeans...",
        "git": "https://galatolo@bitbucket.org/galatolo/docker-apps.git#netbeans"
    },
    {
        "name": "xeyes",
        "author": "Dam Team",
        "description": "X Testing DockerApp",
        "git": "https://galatolo@bitbucket.org/galatolo/docker-apps.git#xeyes"
    },
    {
        "name": "torbrowser",
        "author": "Dam Team",
        "description": "Tor Browser",
        "git": "https://galatolo@bitbucket.org/galatolo/docker-apps.git#torbrowser"
    },
    {
        "name": "google-chrome",
        "author": "Dam Team",
        "description": "Google Chrome",
        "git": "https://galatolo@bitbucket.org/galatolo/docker-apps.git#google-chrome"
    }
]